{"code":2000,"msg":"成功","data":{"list":[{"id":480010,"version":"V2.3.3","versionName":"钱包NoV2.3.3","releaseDate":1687000452,"releaseText":"修复已知问题","forceUpdate":2,"updatedBy":"","updateTime":0,"creator":"skill","createTime":1687000480},{"id":450010,"version":"V2.3.2","versionName":"钱包NoV2.3.2","releaseDate":1686605223,"releaseText":"1.买卖功能优化\n2.搬砖功能优化\n3.订单功能优化\n4.修复已知BUG","forceUpdate":1,"updatedBy":"","updateTime":0,"creator":"sandra","createTime":1686605337},{"id":390018,"version":"V2.3.1","versionName":"钱包NoV2.3.1","releaseDate":1685610297,"releaseText":"1.站点增加cookie绑定","forceUpdate":2,"updatedBy":"","updateTime":0,"creator":"sandra","createTime":1685610427},{"id":390017,"version":"V2.3.0","versionName":"钱包NoV2.3.0","releaseDate":1685013119,"releaseText":"1.无痕兑换\n2.界面交互优化\n3.已知BUG修复","forceUpdate":1,"updatedBy":"skill","updateTime":1685014580,"creator":"sandra","createTime":1685013167},{"id":420016,"version":"V2.2.9","versionName":"钱包NoV2.2.9","releaseDate":1683975134,"releaseText":"1.币种拓展：USDC(ERC20)/USDT(ERC20)/TRX\n2.区块钱包支持多地址调整\n3.界面交互优化\n4.已知BUG修复","forceUpdate":1,"updatedBy":"","updateTime":0,"creator":"sandra","createTime":1683975161},{"id":390016,"version":"V2.2.8","versionName":"钱包NoV2.2.8","releaseDate":1682671670,"releaseText":"1.修复已知问题 \n2.界面交互优化","forceUpdate":1,"updatedBy":"","updateTime":0,"creator":"sandra","createTime":1682671697},{"id":390015,"version":"V2.2.7","versionName":"钱包No2.2.7","releaseDate":1682163793,"releaseText":"1.修复已知问题","forceUpdate":1,"updatedBy":"","updateTime":0,"creator":"sandra","createTime":1682163824},{"id":420015,"version":"V2.2.6","versionName":"钱包NoV2.2.5","releaseDate":1681900951,"releaseText":"1.修复已知问题\n2.界面交互优化","forceUpdate":1,"updatedBy":"","updateTime":0,"creator":"sandra","createTime":1681901014},{"id":360014,"version":"V2.2.5","versionName":"钱包NoV2.2.5","releaseDate":1681200410,"releaseText":"修复已知问题","forceUpdate":1,"updatedBy":"","updateTime":0,"creator":"sandra","createTime":1681200467},{"id":420014,"version":"V2.2.4","versionName":"钱包NoV2.2.4","releaseDate":1678718210,"releaseText":"修复已知问题","forceUpdate":1,"updatedBy":"","updateTime":0,"creator":"leila001","createTime":1678718233},{"id":420013,"version":"V2.2.3","versionName":"钱包NoV2.2.3","releaseDate":1678320293,"releaseText":"1.界面交互优化\n2.修复已知问题","forceUpdate":1,"updatedBy":"leila001","updateTime":1678320530,"creator":"leila001","createTime":1678320415},{"id":390014,"version":"V2.2.2","versionName":"钱包NoV2.2.2","releaseDate":1676857727,"releaseText":"修复已知问题","forceUpdate":1,"updatedBy":"","updateTime":0,"creator":"leila001","createTime":1676857767},{"id":420012,"version":"V2.2.1","versionName":"钱包NoV2.1.1","releaseDate":1676077579,"releaseText":"修复已知问题","forceUpdate":1,"updatedBy":"","updateTime":0,"creator":"leila001","createTime":1676077611},{"id":420011,"version":"V2.1.0","versionName":"钱包NoV2.1.0","releaseDate":1674095179,"releaseText":"修复已知问题","forceUpdate":1,"updatedBy":"","updateTime":0,"creator":"leila001","createTime":1674095216},{"id":360013,"version":"V2.0.9","versionName":"钱包NoV2.0.9","releaseDate":1673767341,"releaseText":"修复已知问题","forceUpdate":1,"updatedBy":"","updateTime":0,"creator":"leila001","createTime":1673767393},{"id":390013,"version":"V2.0.8","versionName":"钱包NoV2.0.8","releaseDate":1673510400,"releaseText":"修复已知问题","forceUpdate":1,"updatedBy":"","updateTime":0,"creator":"nemo001","createTime":1673511105},{"id":360012,"version":"V2.0.7","versionName":"钱包NoV2.0.7","releaseDate":1673085600,"releaseText":"修复已知问题","forceUpdate":1,"updatedBy":"","updateTime":0,"creator":"nemo001","createTime":1673088684},{"id":360011,"version":"V2.0.6","versionName":"钱包NoV2.0.6","releaseDate":1672370973,"releaseText":"修复已知问题","forceUpdate":1,"updatedBy":"","updateTime":0,"creator":"nemo001","createTime":1672371029},{"id":390012,"version":"V2.0.5","versionName":"钱包NoV2.0.5","releaseDate":1671717187,"releaseText":"修复已知问题","forceUpdate":1,"updatedBy":"","updateTime":0,"creator":"leila001","createTime":1671717214},{"id":390011,"version":"V2.0.4","versionName":"钱包NoV2.0.4","releaseDate":1671354494,"releaseText":"修复已知问题","forceUpdate":1,"updatedBy":"","updateTime":0,"creator":"leila001","createTime":1671354518}],"page":1,"pageSize":20,"count":20,"total":64,"pages":4}}